<?php xml version="1.0" encoding="utf-8"?>
<!-- Generator: Adobe Illustrator 16.2.1, SVG Export Plug-In . SVG Version: 6.00 Build 0)  -->
<!DOCTYPE svg PUBLIC "-//W3C//DTD SVG 1.1//EN" "http://www.w3.org/Graphics/SVG/1.1/DTD/svg11.dtd">
<svg version="1.1" id="Layer_1" xmlns="http://www.w3.org/2000/svg" xmlns:xlink="http://www.w3.org/1999/xlink" x="0px" y="0px"
	 width="512px" height="512px" viewBox="0 0 512 512" style="enable-background:new 0 0 512 512;" xml:space="preserve">
<g>
	<polygon points="274,209.7 337.9,145.9 288,96 416,96 416,224 366.1,174.1 302.3,238 	"/>
	<polygon points="274,302.3 337.9,366.1 288,416 416,416 416,288 366.1,337.9 302.3,274 	"/>
	<polygon points="238,302.3 174.1,366.1 224,416 96,416 96,288 145.9,337.9 209.7,274 	"/>
	<polygon points="238,209.7 174.1,145.9 224,96 96,96 96,224 145.9,174.1 209.7,238 	"/>
</g>
</svg>
