<?php xml version="1.0" encoding="utf-8"?>
<!-- Generator: Adobe Illustrator 16.2.1, SVG Export Plug-In . SVG Version: 6.00 Build 0)  -->
<!DOCTYPE svg PUBLIC "-//W3C//DTD SVG 1.1//EN" "http://www.w3.org/Graphics/SVG/1.1/DTD/svg11.dtd">
<svg version="1.1" id="Layer_1" xmlns="http://www.w3.org/2000/svg" xmlns:xlink="http://www.w3.org/1999/xlink" x="0px" y="0px"
	 width="512px" height="512px" viewBox="0 0 512 512" style="enable-background:new 0 0 512 512;" xml:space="preserve">
<path d="M448,71.9c-17.3-13.4-41.5-9.3-54.1,9.1L214,344.2l-99.1-107.3c-14.6-16.6-39.1-17.4-54.7-1.8
	c-15.6,15.5-16.4,41.6-1.7,58.1c0,0,120.4,133.6,137.7,147c17.3,13.4,41.5,9.3,54.1-9.1l206.3-301.7
	C469.2,110.9,465.3,85.2,448,71.9z"/>
</svg>
