<?php xml version="1.0" encoding="utf-8"?>
<!-- Generator: Adobe Illustrator 16.2.1, SVG Export Plug-In . SVG Version: 6.00 Build 0)  -->
<!DOCTYPE svg PUBLIC "-//W3C//DTD SVG 1.1//EN" "http://www.w3.org/Graphics/SVG/1.1/DTD/svg11.dtd">
<svg version="1.1" id="Layer_1" xmlns="http://www.w3.org/2000/svg" xmlns:xlink="http://www.w3.org/1999/xlink" x="0px" y="0px"
	 width="512px" height="512px" viewBox="0 0 512 512" style="enable-background:new 0 0 512 512;" xml:space="preserve">
<path d="M213.7,256L213.7,256L213.7,256L380.9,81.9c4.2-4.3,4.1-11.4-0.2-15.8l-29.9-30.6c-4.3-4.4-11.3-4.5-15.5-0.2L131.1,247.9
	c-2.2,2.2-3.2,5.2-3,8.1c-0.1,3,0.9,5.9,3,8.1l204.2,212.7c4.2,4.3,11.2,4.2,15.5-0.2l29.9-30.6c4.3-4.4,4.4-11.5,0.2-15.8
	L213.7,256z"/>
</svg>
