<?php xml version="1.0" encoding="utf-8"?>
<!-- Generator: Adobe Illustrator 16.2.1, SVG Export Plug-In . SVG Version: 6.00 Build 0)  -->
<!DOCTYPE svg PUBLIC "-//W3C//DTD SVG 1.1//EN" "http://www.w3.org/Graphics/SVG/1.1/DTD/svg11.dtd">
<svg version="1.1" id="Layer_1" xmlns="http://www.w3.org/2000/svg" xmlns:xlink="http://www.w3.org/1999/xlink" x="0px" y="0px"
	 width="512px" height="512px" viewBox="0 0 512 512" enable-background="new 0 0 512 512" xml:space="preserve">
<g>
	<path d="M256,112L96,240v208h112V320h96v128h112V240L256,112z M400,432h-80V304H192v128h-80V247.69l144-115.2l144,115.2V432z"/>
	<g>
		<path d="M256,64l-96,76.8V96H96v95.999l-32,25.6v20.491l192-153.6l192,153.6v-20.491L256,64z M144,153.6l-32,25.6V112h32V153.6z"
			/>
	</g>
</g>
</svg>
