<?php xml version="1.0" encoding="utf-8"?>
<!-- Generator: Adobe Illustrator 16.2.1, SVG Export Plug-In . SVG Version: 6.00 Build 0)  -->
<!DOCTYPE svg PUBLIC "-//W3C//DTD SVG 1.1//EN" "http://www.w3.org/Graphics/SVG/1.1/DTD/svg11.dtd">
<svg version="1.1" id="Layer_1" xmlns="http://www.w3.org/2000/svg" xmlns:xlink="http://www.w3.org/1999/xlink" x="0px" y="0px"
	 width="512px" height="512px" viewBox="0 0 512 512" enable-background="new 0 0 512 512" xml:space="preserve">
<path d="M448,273.001c-21.27,0-39.296,13.999-45.596,32.999h-38.857l-28.361-85.417c-2.176-6.553-8.303-10.956-15.183-10.956
	c-0.112,0-0.224,0-0.335,0.004c-7.016,0.145-13.117,4.844-15.049,11.588l-44.484,155.262L207.782,62.373
	C206.535,54.893,200.333,48,192,48s-13.693,5.776-15.525,13.135L115.496,306H16v31.999h112c7.348,0,13.75-5.003,15.525-12.134
	l45.368-182.177l51.324,307.94c1.229,7.377,7.397,11.92,14.864,12.344C255.389,463.99,255.695,464,256,464
	c7.097,0,13.406-3.701,15.381-10.594l49.744-173.617l15.689,47.252c2.173,6.543,8.292,10.958,15.186,10.958h51.108
	C409.973,355.999,427.477,369,448,369c26.511,0,48-22.492,48-49C496,293.491,474.511,273.001,448,273.001z"/>
</svg>
