<?php xml version="1.0" encoding="utf-8"?>
<!-- Generator: Adobe Illustrator 16.2.1, SVG Export Plug-In . SVG Version: 6.00 Build 0)  -->
<!DOCTYPE svg PUBLIC "-//W3C//DTD SVG 1.1//EN" "http://www.w3.org/Graphics/SVG/1.1/DTD/svg11.dtd">
<svg version="1.1" id="Layer_1" xmlns="http://www.w3.org/2000/svg" xmlns:xlink="http://www.w3.org/1999/xlink" x="0px" y="0px"
	 width="512px" height="512px" viewBox="0 0 512 512" style="enable-background:new 0 0 512 512;" xml:space="preserve">
<style type="text/css">
<![CDATA[
	.st0{fill:#010101;}
]]>
</style>
<path class="st0" d="M244,160c-43,0-78.3,35.2-78.3,78.5c0,2.6,0.1,5.2,0.4,7.8c-26.4,2.3-47.1,25.5-47.1,52.6
	c0,28.6,23.2,53.1,51.7,53.1h157.7c35.7,0,64.6-29.9,64.6-65.7S364.1,221,328.4,221c-2.7,0-5.4,0-8,0.3C312.5,186.3,281,160,244,160
	L244,160z"/>
</svg>
