<?php xml version="1.0" encoding="utf-8"?>
<!-- Generator: Adobe Illustrator 16.2.1, SVG Export Plug-In . SVG Version: 6.00 Build 0)  -->
<!DOCTYPE svg PUBLIC "-//W3C//DTD SVG 1.1//EN" "http://www.w3.org/Graphics/SVG/1.1/DTD/svg11.dtd">
<svg version="1.1" id="Layer_1" xmlns="http://www.w3.org/2000/svg" xmlns:xlink="http://www.w3.org/1999/xlink" x="0px" y="0px"
	 width="512px" height="512px" viewBox="0 0 512 512" style="enable-background:new 0 0 512 512;" xml:space="preserve">
<g>
	<g>
		<g>
			<path d="M256,48C141.1,48,48,141.1,48,256c0,114.9,93.1,208,208,208c114.9,0,208-93.1,208-208C464,141.1,370.9,48,256,48z
				 M256,446.7c-105.1,0-190.7-85.5-190.7-190.7c0-105.1,85.5-190.7,190.7-190.7c105.1,0,190.7,85.5,190.7,190.7
				C446.7,361.1,361.1,446.7,256,446.7z"/>
		</g>
	</g>
	<g>
		<path d="M259.6,146c-43.2,0-67.3,20.3-67.6,62.2h18.8c-0.6-30.4,15.5-46.5,47.9-46.5c23.2,0,42.6,16.2,42.6,39.8
			c0,15.3-8.3,27.7-19.4,38.1c-22.6,20.8-29,36-30.1,64.5h19c1.1-25.8,0.5-30.7,23.3-53.3c15.2-14.2,25.9-28.3,25.9-50.2
			C320,166.4,292.6,146,259.6,146z"/>
		<path d="M260.3,332.3c-9.4,0-17,7.5-17,16.8c0,9.3,7.6,16.9,17,16.9c9.4,0,17-7.5,17-16.9C277.3,339.8,269.7,332.3,260.3,332.3z"
			/>
	</g>
</g>
</svg>
