<?php xml version="1.0" encoding="utf-8"?>
<!-- Generator: Adobe Illustrator 16.2.1, SVG Export Plug-In . SVG Version: 6.00 Build 0)  -->
<!DOCTYPE svg PUBLIC "-//W3C//DTD SVG 1.1//EN" "http://www.w3.org/Graphics/SVG/1.1/DTD/svg11.dtd">
<svg version="1.1" id="Layer_1" xmlns="http://www.w3.org/2000/svg" xmlns:xlink="http://www.w3.org/1999/xlink" x="0px" y="0px"
	 width="512px" height="512px" viewBox="0 0 512 512" style="enable-background:new 0 0 512 512;" xml:space="preserve">
<g>
	<path d="M144,160h224V96H144V160z M160,112h192v32H160V112z"/>
	<path d="M368,64H144c-17.7,0-32,14.3-32,32v320c0,17.7,14.3,32,32,32h224c17.7,0,32-14.3,32-32V96C400,78.3,385.7,64,368,64z
		 M384,416c0,8.8-7.2,16-16,16H144c-8.8,0-16-7.2-16-16V96c0-8.8,7.2-16,16-16h224c8.8,0,16,7.2,16,16V416z"/>
	<polygon points="160,240 160,208 160,192 144,192 144,256 208,256 208,240 192,240 	"/>
	<polygon points="160,320 160,288 160,272 144,272 144,336 208,336 208,320 192,320 	"/>
	<polygon points="160,400 160,368 160,352 144,352 144,416 208,416 208,400 192,400 	"/>
	<polygon points="240,240 240,208 240,192 224,192 224,256 288,256 288,240 272,240 	"/>
	<polygon points="320,240 320,208 320,192 304,192 304,256 368,256 368,240 352,240 	"/>
	<polygon points="240,320 240,288 240,272 224,272 224,336 288,336 288,320 272,320 	"/>
	<polygon points="240,400 240,368 240,352 224,352 224,416 288,416 288,400 272,400 	"/>
	<polygon points="320,400 320,368 320,272 304,272 304,416 368,416 368,400 352,400 	"/>
</g>
</svg>
