<?php xml version="1.0" encoding="utf-8"?>
<!-- Generator: Adobe Illustrator 16.2.1, SVG Export Plug-In . SVG Version: 6.00 Build 0)  -->
<!DOCTYPE svg PUBLIC "-//W3C//DTD SVG 1.1//EN" "http://www.w3.org/Graphics/SVG/1.1/DTD/svg11.dtd">
<svg version="1.1" id="Layer_1" xmlns="http://www.w3.org/2000/svg" xmlns:xlink="http://www.w3.org/1999/xlink" x="0px" y="0px"
	 width="512px" height="512px" viewBox="0 0 512 512" style="enable-background:new 0 0 512 512;" xml:space="preserve">
<g>
	<path d="M456.7,378.7c-52.5-8-56.5-15.7-56.5-15.7c10.8-64.9-22.7-147.1-77.4-191.6c-72.8-59.2-183.5-16.2-269.7-106.2
		c-20.1-21-8.4,235.5,99.5,332.7c78.9,71,171.8,49.2,197.3,37.6c23.1-10.6,39.3-29.9,39.3-29.9c42.1,13,62.9,12.2,62.9,12.2
		C466.9,419.6,474.4,381.4,456.7,378.7z M360.6,383.1c-138.2-40.9-242.1-184.5-242.1-184.5s91.2,107.7,252,160.2
		C370.7,366.9,365.9,378.5,360.6,383.1z"/>
</g>
</svg>
