<?php xml version="1.0" encoding="utf-8"?>
<!-- Generator: Adobe Illustrator 16.2.1, SVG Export Plug-In . SVG Version: 6.00 Build 0)  -->
<!DOCTYPE svg PUBLIC "-//W3C//DTD SVG 1.1//EN" "http://www.w3.org/Graphics/SVG/1.1/DTD/svg11.dtd">
<svg version="1.1" id="Layer_1" xmlns="http://www.w3.org/2000/svg" xmlns:xlink="http://www.w3.org/1999/xlink" x="0px" y="0px"
	 width="512px" height="512px" viewBox="0 0 512 512" enable-background="new 0 0 512 512" xml:space="preserve">
<g>
	<path d="M256,32c-0.46,0-0.917,0.011-1.376,0.015l5.747,0.057C258.92,32.029,257.464,32,256,32z"/>
	<path d="M378.553,193.211c-0.195,0.064-0.414,0.16-0.619,0.269c-34.234,13.289-76.337,22.52-121.886,22.475
		c-45.52-0.076-87.626-9.398-121.81-22.772c-0.19-0.104-0.429-0.192-0.647-0.265c-1.531-0.554-3.146-0.897-4.841-0.917
		c-0.254-0.001-0.5-0.013-0.75,0v176.012C128,429.892,185.308,480,256,480c21.992,0,42.687-4.803,60.766-13.355
		c0.095-0.045,0.191-0.087,0.286-0.133c0.026-0.013,0.054-0.026,0.08-0.039c4.87-2.344,9.581-4.963,14.122-7.828
		C363.219,438.275,384,405.271,384,368.012V192c-0.191-0.008-0.496,0-0.689,0C381.584,192.014,380.092,192.651,378.553,193.211z
		 M317.132,466.424c-0.026,0.013-0.054,0.026-0.08,0.039c-0.095,0.045-0.191,0.088-0.286,0.133c0.095-0.045,0.191-0.088,0.286-0.133
		C317.078,466.45,317.105,466.437,317.132,466.424c4.87-2.342,9.581-4.961,14.122-7.825
		C326.758,461.463,322.044,464.083,317.132,466.424z"/>
	<path d="M331.254,458.599c-4.541,2.864-9.252,5.483-14.122,7.825C322.044,464.083,326.758,461.463,331.254,458.599z"/>
	<path d="M260.371,32.072l-5.747-0.057C184.566,32.662,128,82.547,128,144v22.708c2.158,2.024,4.593,3.755,7.251,5.115
		c0.673,0.337,1.386,0.659,2.059,0.996c0.032,0.027,0.077,0.01,0.109,0.036c22.757,10.35,51.429,15.801,83.415,19.006
		c0.694,0.078,1.397,0.107,2.148,0.12C234.24,191.997,239.996,192,240,181.411V96c0-8.836,7.164-16,16-16c8.836,0,16,7.164,16,16
		v86.328c-0.088,9.672,5.926,9.72,17.2,9.749c0.717-0.016,1.415-0.045,2.081-0.105c0.062-0.003,0.141,0.005,0.244-0.02
		c31.682-3.119,60.143-8.405,82.808-18.59c1.162-0.545,2.291-1.056,3.407-1.581c2.271-1.232,4.365-2.743,6.26-4.466V144
		C384,83.425,329.039,34.09,260.371,32.072z"/>
</g>
</svg>
