<?php xml version="1.0" encoding="utf-8"?>
<!-- Generator: Adobe Illustrator 16.2.1, SVG Export Plug-In . SVG Version: 6.00 Build 0)  -->
<!DOCTYPE svg PUBLIC "-//W3C//DTD SVG 1.1//EN" "http://www.w3.org/Graphics/SVG/1.1/DTD/svg11.dtd">
<svg version="1.1" id="Layer_1" xmlns="http://www.w3.org/2000/svg" xmlns:xlink="http://www.w3.org/1999/xlink" x="0px" y="0px"
	 width="512px" height="512px" viewBox="0 0 512 512" style="enable-background:new 0 0 512 512;" xml:space="preserve">
<g>
	<g>
		<polygon points="290.4,145 227,96 290.6,198.2 		"/>
	</g>
	<g>
		<path d="M329,96v79.6V259h-36.4l-63.2-98.6l1.7,98.6H191V152l-37.3-29.3c1,1.2,2,2.4,2.9,3.7c10,13.9,15,30.5,15,50.5
			c0,49.2-30.6,82.1-76.9,82.1H32v0.4L231.6,416H480V214.1L329,96z"/>
	</g>
	<g>
		<path d="M129.9,178.1c0-29-14.2-45.1-39.7-45.1H71v89h19C116,222,129.9,206.6,129.9,178.1z"/>
	</g>
</g>
</svg>
