<?php xml version="1.0" encoding="utf-8"?>
<!-- Generator: Adobe Illustrator 16.2.1, SVG Export Plug-In . SVG Version: 6.00 Build 0)  -->
<!DOCTYPE svg PUBLIC "-//W3C//DTD SVG 1.1//EN" "http://www.w3.org/Graphics/SVG/1.1/DTD/svg11.dtd">
<svg version="1.1" id="Layer_1" xmlns="http://www.w3.org/2000/svg" xmlns:xlink="http://www.w3.org/1999/xlink" x="0px" y="0px"
	 width="512px" height="512px" viewBox="0 0 512 512" style="enable-background:new 0 0 512 512;" xml:space="preserve">
<g>
	<path d="M333.6,169.9c16.3,0,33.2,7.4,47.4,20.4c-9.9,8.5-17.9,18.7-23.7,30.2c-8,16-11.6,34.3-10.2,52.7
		c1.3,18.7,7.6,36.6,18,51.8c8,11.6,18.2,21.2,30,28.3c-5,10.7-9.2,18.4-16.8,30.5c-8.4,13.1-30.5,48-52,48.2l-0.4,0
		c-7.4,0-12.2-2.2-19.3-5.6c-10-4.7-22.3-10.6-43.4-10.6l-0.6,0c-21.1,0.1-33.8,5.9-43.9,10.6c-7.4,3.4-12.3,5.7-19.9,5.7l-0.4,0
		c-19.6-0.2-37.5-24.3-50.8-45.2c-19.3-30.4-31.7-65.6-34.9-99.1c-2.9-30.5,2-58.5,13.5-76.7c8-12.7,18.5-23.3,30.4-30.6
		c11.2-6.8,23-10.4,34.2-10.4c12.4,0,22.7,3.8,33.7,7.8c11.5,4.2,23.5,8.6,37.7,8.6c13.6,0,24.3-4.2,34.6-8.2
		C308,173.9,318.2,169.9,333.6,169.9 M333.6,153.9c-33.6,0-47.8,16.5-71.2,16.5c-24,0-42.3-16.4-71.4-16.4
		c-28.5,0-58.9,17.9-78.2,48.4c-27.1,43-22.5,124,21.4,193c15.7,24.7,36.7,52.4,64.2,52.7c0.2,0,0.3,0,0.5,0
		c23.9,0,31-16.1,63.9-16.3c0.2,0,0.3,0,0.5,0c32.4,0,38.9,16.2,62.7,16.2c0.2,0,0.3,0,0.5,0c27.5-0.3,49.6-31,65.3-55.6
		c11.3-17.7,15.5-26.6,24.2-46.6c-63.5-24.8-73.7-117.4-10.9-152.9C385.9,168.2,359,153.9,333.6,153.9L333.6,153.9z"/>
	<path d="M309.9,84.5c-2.7,14.9-10.5,26.8-14.6,32.2c-7.4,9.8-18,17.4-28.8,21.1c0.5-3,1.3-6.1,2.4-9.2c3.5-10.2,8.9-18.2,12.8-23.1
		C288.8,96.7,299.3,89.1,309.9,84.5 M326.2,64c-20,1.4-43.3,14.5-57,31.6c-12.4,15.5-22.6,38.5-18.6,60.8c0.5,0,1,0,1.6,0
		c21.3,0,43.1-13.2,55.8-30.1C320.3,110.2,329.6,87.4,326.2,64L326.2,64z"/>
</g>
</svg>
