<?php xml version="1.0" encoding="utf-8"?>
<!-- Generator: Adobe Illustrator 16.2.1, SVG Export Plug-In . SVG Version: 6.00 Build 0)  -->
<!DOCTYPE svg PUBLIC "-//W3C//DTD SVG 1.1//EN" "http://www.w3.org/Graphics/SVG/1.1/DTD/svg11.dtd">
<svg version="1.1" id="Layer_1" xmlns="http://www.w3.org/2000/svg" xmlns:xlink="http://www.w3.org/1999/xlink" x="0px" y="0px"
	 width="512px" height="512px" viewBox="0 0 512 512" style="enable-background:new 0 0 512 512;" xml:space="preserve">
<path d="M320,160C320,96,293.5,32,256,32s-64,64-64,128l0,0c0.9,25,15.7,54.3,36.6,64.3c0.5,0.2,0.9,0.4,1.4,0.6c0,0,0,0,0.1,0
	c3.4,1.9,9.8,5.5,9.8,9.7c0,0-16,198.7-16,210.1s5,20.5,10.5,26c5.5,5.5,13.1,9.2,21.3,9.2c0.1,0,0.1,0,0.2,0c0.1,0,0.1,0,0.2,0
	c8.2,0,15.8-3.7,21.4-9.2c5.5-5.5,10.3-12.9,10.3-26s-16-210.1-16-210.1c0-4.2,6.4-7.9,9.8-9.8l1.7-0.9C304.9,214,320,186,320,160"
	/>
</svg>
