<?php xml version="1.0" encoding="utf-8"?>
<!-- Generator: Adobe Illustrator 16.2.1, SVG Export Plug-In . SVG Version: 6.00 Build 0)  -->
<!DOCTYPE svg PUBLIC "-//W3C//DTD SVG 1.1//EN" "http://www.w3.org/Graphics/SVG/1.1/DTD/svg11.dtd">
<svg version="1.1" id="Layer_1" xmlns="http://www.w3.org/2000/svg" xmlns:xlink="http://www.w3.org/1999/xlink" x="0px" y="0px"
	 width="512px" height="512px" viewBox="0 0 512 512" enable-background="new 0 0 512 512" xml:space="preserve">
<g>
	<polygon points="256,64 32,176.295 64,197.367 64,400 96,416 96,217.849 255.852,320 387.996,234.549 480,174.727 	"/>
	<path d="M390.13,256L256,343.768L120.531,256L112,337.529l6.305,3.378c1,0.542,92.382,54.243,130.652,98.858l7.045,8.234
		l7.055-8.234c38.274-44.615,129.706-98.316,130.706-98.858l6.236-3.347L390.13,256z"/>
</g>
</svg>
